1 10 20
100 200 125
201 210 89
900 1000 174
593509 764844 509
236423 36080 443
443429 950384 525
28596 941554 525
911152 399604 525
448906 318693 449
297432 709008 509
114871 57530 354
399812 522479 470
913145 59973 525
180682 928426 525
416895 265833 449
229988 556040 470
618631 222246 470
16427 31347 308
115868 600526 470
105897 259711 443
867963 726619 525
998705 478548 525
429638 627420 509
830019 322733 509
779297 62409 509
453618 865743 525
223574 977153 525
686536 462884 509
832847 758044 468
399886 582627 470
255566 506033 449
78170 452897 449
870247 110309 525
706758 111143 509
863625 830012 525
41668 483201 449
841393 118121 525
538370 870607 525
888196 919320 476
137643 912385 525
648425 399453 509
951816 559637 525
298656 837500 509
905137 20337 525
978574 676953 525
182654 853541 525
160787 560592 470
980748 14939 525
429444 116967 449
974141 488201 525
651727 122062 509
607050 811784 509
438412 636255 509
427867 412984 418
13350 282022 443
646777 999748 525
701116 756284 504
878263 133224 525
612023 818493 509
413283 102493 449
229588 185963 386
650004 211181 509
334536 327613 353
488609 304508 449
741746 112183 509
881662 495828 525
989682 793427 525
857613 497124 525
284358 961164 525
203531 678757 509
481752 760924 509
275959 950666 525
22901 484545 449
97940 486461 449
54451 498252 449
944927 932655 507
542128 698046 509
960740 434560 525
644085 912378 525
985259 804748 525
822776 409615 509
821486 91613 509
993625 228816 525
301421 221591 443
668500 22614 509
690063 551760 509
627107 760897 504
950517 45013 525
640305 509304 509
844430 272625 525
871845 78043 525
325004 471234 449
871023 102507 525
842328 228461 525
245922 222393 443
282043 519473 470
229172 536825 470
692403 930751 525
278072 495098 449
569599 413956 470
551635 754939 509
449859 606423 470
978356 368270 525
721758 303841 509
251749 363600 441
758655 18376 509
168117 166553 321
350979 94437 443
577062 862179 525
99155 727710 509
909660 669792 525
433473 44995 449
161809 703761 509
769512 340831 509
745962 708775 424
962585 122977 525
316935 690579 509
562725 207661 470
592007 925781 525
829398 962336 525
478628 37240 449
552965 172488 470
746145 37815 509
665649 721166 504
517810 332399 470
29911 767261 509
29275 217117 386
25059 613974 470
235771 961808 525
984078 274294 525
139740 760965 509
857052 47397 525
251416 522586 470
627491 656249 416
178256 78938 383
787763 473233 509
486009 460834 444
615632 531659 452
759393 851141 525
190133 124387 383
175446 825600 509
996539 424599 525
463729 341022 449
672070 188293 509
888301 324210 525
854447 284768 525
954473 992926 458
39966 988862 525
18728 108793 354
703776 302767 509
182535 655804 509
257377 774872 509
897025 696851 525
580015 840937 525
535833 328779 470
623613 41765 470
518754 145173 470
301871 223147 443
17448 46710 324
272720 589060 470
361148 921321 525
765643 597610 509
267466 655497 509
873774 720582 525
248465 257540 363
94530 863869 525
32064 191508 383
881095 455907 525
166957 366900 443
931020 917959 476
287322 900842 525
65245 273676 443
849933 163890 525
502006 410807 444
286984 160406 443
508548 560341 470
920294 576249 525
22657 602354 470
928285 690365 525
957097 650285 525
524663 67283 470
725323 420650 509
531459 563320 452
768852 600037 509
280647 581818 470
366717 443499 449
652017 303428 509
30624 837960 525
834536 556231 509
288348 706394 509
584823 250549 470
7357 792208 509
211970 431462 449
557029 14229 470
943659 793436 525
701723 749826 504
274167 931565 525
143589 200087 383
911666 854703 476
285547 905197 525
343500 460656 449
16467 922562 525
163417 520127 470
127 581 144
14 642 144
108 250 128
349 5 144
286 23 128
149 326 131
17 161 122
60 18 113
367 61 144
405 96 144
306 119 128
269 187 128
15 454 144
29 315 131
182 140 125
20 290 128
349 308 144
93 101 119
67 458 144
72 208 125
91 545 144
387 298 144
303 631 144
494 360 142
295 176 128
378 7 144
61 167 122
71 357 144
26 305 128
324 446 144
238 279 123
174 195 120
116 445 144
288 324 131
267 92 128
252 179 128
470 58 144
159 259 128
223 247 128
48 262 128
44 495 144
482 602 142
86 608 144
366 654 145
60 502 144
390 577 142
45 571 144
173 129 125
6 54 113
397 250 144
