1 3999 238
4000 7999 262
8000 11999 268
12000 15999 276
16000 19999 279
20000 23999 282
24000 27999 308
28000 31999 285
32000 35999 324
36000 39999 306
40000 43999 288
44000 47999 314
48000 51999 309
52000 55999 340
56000 59999 322
60000 63999 335
64000 67999 312
68000 71999 325
72000 75999 325
76000 79999 351
80000 83999 320
84000 87999 333
88000 91999 333
92000 95999 328
96000 99999 328
100000 103999 341
104000 107999 354
108000 111999 323
112000 115999 349
116000 119999 336
120000 123999 336
124000 127999 331
128000 131999 344
132000 135999 344
136000 139999 331
140000 143999 375
144000 147999 357
148000 151999 370
152000 155999 352
156000 159999 383
160000 163999 370
164000 167999 352
168000 171999 334
172000 175999 347
176000 179999 347
180000 183999 365
184000 187999 347
188000 191999 360
192000 195999 360
196000 199999 329
200000 203999 342
204000 207999 373
208000 211999 355
212000 215999 373
216000 219999 386
220000 223999 355
224000 227999 368
228000 231999 443
232000 235999 381
236000 239999 350
240000 243999 368
244000 247999 350
248000 251999 350
252000 255999 363
256000 259999 345
260000 263999 407
264000 267999 345
268000 271999 407
272000 275999 358
276000 279999 389
280000 283999 358
284000 287999 376
288000 291999 389
292000 295999 358
296000 299999 371
300000 303999 371
304000 307999 340
308000 311999 371
312000 315999 384
316000 319999 353
320000 323999 371
324000 327999 384
328000 331999 353
332000 335999 353
336000 339999 366
340000 343999 353
344000 347999 441
348000 351999 379
352000 355999 379
356000 359999 379
360000 363999 410
364000 367999 361
368000 371999 392
372000 375999 361
376000 379999 423
380000 383999 379
384000 387999 348
388000 391999 436
392000 395999 405
396000 399999 374
400000 403999 387
404000 407999 405
408000 411999 449
412000 415999 374
416000 419999 387
420000 423999 418
424000 427999 374
428000 431999 343
432000 435999 387
436000 439999 400
440000 443999 356
444000 447999 338
448000 451999 387
452000 455999 369
456000 459999 356
460000 463999 444
464000 467999 413
468000 471999 382
472000 475999 382
476000 479999 382
480000 483999 413
484000 487999 382
488000 491999 382
492000 495999 426
496000 499999 395
500000 503999 426
504000 507999 382
508000 511999 470
512000 515999 395
516000 519999 439
520000 523999 364
524000 527999 408
528000 531999 377
532000 535999 377
536000 539999 377
540000 543999 408
544000 547999 452
548000 551999 377
552000 555999 421
556000 559999 346
560000 563999 359
564000 567999 421
568000 571999 377
572000 575999 372
576000 579999 390
580000 583999 434
584000 587999 372
588000 591999 403
592000 595999 328
596000 599999 372
600000 603999 403
604000 607999 372
608000 611999 403
612000 615999 447
616000 619999 372
620000 623999 372
624000 627999 509
628000 631999 341
632000 635999 416
636000 639999 354
640000 643999 416
644000 647999 341
648000 651999 385
652000 655999 385
656000 659999 429
660000 663999 323
664000 667999 442
668000 671999 336
672000 675999 385
676000 679999 380
680000 683999 380
684000 687999 398
688000 691999 442
692000 695999 367
696000 699999 367
700000 703999 411
704000 707999 504
708000 711999 380
712000 715999 411
716000 719999 380
720000 723999 411
724000 727999 362
728000 731999 380
732000 735999 424
736000 739999 424
740000 743999 393
744000 747999 362
748000 751999 393
752000 755999 424
756000 759999 362
760000 763999 380
764000 767999 468
768000 771999 393
772000 775999 437
776000 779999 437
780000 783999 362
784000 787999 375
788000 791999 406
792000 795999 437
796000 799999 468
800000 803999 406
804000 807999 406
808000 811999 406
812000 815999 375
816000 819999 450
820000 823999 450
824000 827999 419
828000 831999 419
832000 835999 388
836000 839999 525
840000 843999 388
844000 847999 419
848000 851999 357
852000 855999 419
856000 859999 375
860000 863999 357
864000 867999 388
868000 871999 432
872000 875999 432
876000 879999 401
880000 883999 370
884000 887999 445
888000 891999 370
892000 895999 370
896000 899999 370
900000 903999 401
904000 907999 445
908000 911999 476
912000 915999 401
916000 919999 432
920000 923999 445
924000 927999 476
928000 931999 383
932000 935999 414
936000 939999 507
940000 943999 383
944000 947999 383
948000 951999 414
952000 955999 414
956000 959999 352
960000 963999 414
964000 967999 365
968000 971999 458
972000 975999 383
976000 979999 383
980000 983999 427
984000 987999 427
988000 991999 352
992000 995999 365
996000 999999 440
