979662 912975 507
318423 657251 509
921566 754993 525
575926 364901 470
782269 182586 509
625690 203319 470
612966 798808 509
715431 184124 509
740399 539530 509
26893 393188 443
371206 82891 443
203610 730311 509
192396 750127 509
89966 779918 509
882894 840028 432
290698 406550 441
180729 228290 386
792655 38904 509
492883 424489 444
298181 397011 441
130471 176904 383
386512 507757 449
163134 89091 383
872748 394582 525
540787 860299 525
423636 453620 418
741630 148680 509
971531 503045 525
326220 444285 449
725733 903450 525
399406 244961 441
310692 645735 509
770817 752607 468
928728 655242 525
276444 541857 470
658254 753030 504
232763 246407 381
725920 269523 509
483207 628054 509
878393 421393 525
225877 439209 449
530339 103239 470
933123 864951 476
194966 843630 525
705168 651883 504
285719 589551 470
526535 301053 470
931867 375356 525
963769 909465 507
617232 898498 525
65443 681177 509
52674 688775 509
851616 357679 525
512576 902475 525
927338 105157 525
741595 203186 509
290495 221737 443
741177 132428 509
968922 5414 525
976396 181434 525
725250 278534 509
805098 734912 468
716793 294324 509
477099 167799 449
949822 49920 525
622202 556544 447
45062 801278 509
240316 277632 407
591791 959404 525
469070 503156 426
45949 24638 324
133968 75553 354
63650 485375 449
211976 838219 525
357359 631656 509
661429 746434 504
442691 737095 509
880994 547082 525
716287 281129 509
58141 438132 449
125148 596501 470
124723 292280 443
378280 797172 509
977549 251050 525
582434 364807 470
612405 316188 470
544341 357327 470
239144 400181 441
604026 501955 470
881032 424015 525
887422 101608 525
641481 239252 509
714939 276601 509
966722 983772 458
209084 23086 383
391343 273263 441
992030 2976 525
33243 522920 470
245841 250646 350
330826 71137 443
464624 875266 525
979022 503317 525
226169 621286 470
668340 580327 509
777559 225725 509
187310 57553 383
418520 509465 444
442040 719401 509
357009 9877 443
114957 458642 449
587864 272834 470
511954 792805 509
337843 655691 509
352801 221271 443
152767 626402 509
888620 584840 525
150775 312826 443
344969 709302 509
326200 869340 525
435785 504690 444
146861 601231 470
194316 550200 470
445157 309196 449
204949 974849 525
171011 285851 443
761964 294362 509
46237 170582 383
496131 483967 426
939050 632334 525
502201 937854 525
93143 398098 443
784242 124379 509
214334 637191 509
431809 657177 509
995027 914158 507
49054 8188 324
734665 879911 525
554153 323611 470
989553 911713 507
743203 211222 509
97456 161475 383
479839 920895 525
226976 564980 470
543879 948828 525
250256 877203 525
332877 821258 509
262594 557085 470
528058 978290 525
627459 241854 509
904740 866622 445
641081 881552 525
165670 418217 449
901690 777603 525
549837 64720 470
237802 936501 525
938446 825419 525
262430 289267 407
399526 906837 525
920935 624473 525
725518 332682 509
465890 865011 525
805803 741527 468
343193 665059 509
834409 17972 509
966312 555831 525
772873 424981 509
778727 644609 504
441214 714668 509
387219 53796 443
696017 736048 504
795540 130599 509
640401 936641 525
539670 48425 470
986837 700218 525
300041 69417 443
372093 559689 470
468263 709494 509
254586 265013 407
149385 884587 525
699408 333923 509
420826 981881 525
926949 59615 525
925099 46161 525
11802 942139 525
669413 290045 509
825655 528189 509
69453 695693 509
359339 470420 449
488856 213765 449
720398 602127 509
348187 478192 449
418207 859558 525
993554 880268 507
41424 241540 443
550362 569193 421
522752 730114 509
962575 915251 507
294520 85222 443
356877 991612 525
735926 466577 509
983723 605449 525
886756 661657 525
106622 488562 449
767413 685196 504
997671 143903 525
755209 35990 509
168346 184468 365
763324 362181 509
769025 203829 509
975599 277062 525
632084 281835 509
91012 244574 443
830928 472906 509
358356 489877 449
23160 437577 449
69594 91878 351
932116 135769 525
651719 274993 509
910955 238135 525
491243 987844 525
6763 993640 525
649086 822429 504
288282 791162 509
259521 884161 525
795446 214760 509
166349 564736 470
527191 686353 509
373892 637885 509
701997 20157 509
673438 240588 509
286679 353625 441
424605 294718 449
192954 639454 509
462027 646103 509
602404 958178 525
416165 760725 509
788217 660377 504
108910 235283 443
318048 674758 509
657362 406114 509
900649 469586 525
608594 788250 509
347690 996379 525
604785 754898 509
910218 450908 525
725508 404472 509
386655 792038 509
469005 62281 449
690269 834235 504
765712 708730 424
448648 457641 387
174097 241042 443
955241 759786 525
789534 564837 509
182213 977020 525
295017 950738 525
164847 361713 443
424374 955951 525
598554 875224 525
894206 930444 476
589730 894372 525
644490 244711 509
453459 36019 449
694037 371055 509
655714 356216 509
165930 19999 383
292081 442470 449
913424 883552 476
580747 598363 434
269727 391788 441
37219 682131 509
371471 685213 509
30611 682314 509
160727 617552 470
802599 696595 504
777647 776383 393
529451 18033 470
807187 26309 509
110354 973906 525
871715 433570 525
647980 13791 509
666010 409728 509
99607 936694 525
416391 358918 449
479427 902614 525
337634 661851 509
449648 253006 449
842811 42296 525
615673 691205 509
576851 941704 525
603503 548164 434
496843 993787 525
703015 806778 504
542253 190480 470
627832 509052 509
686461 661018 442
440316 947212 525
324015 976285 525
768675 367169 509
739920 684092 504
299176 354721 441
938529 731646 525
175024 285130 443
311720 919714 525
922566 905559 476
500614 145982 449
501374 712195 509
400103 675747 509
684023 695308 442
483930 758340 509
380813 916266 525
692053 449074 509
38965 407529 443
416356 858192 525
878702 737729 525
574315 218581 470
596385 439983 470
88869 953725 525
352555 350786 379
948304 263627 525
628244 130231 509
888265 978715 507
163952 59968 383
607541 859205 525
997226 314829 525
493548 712052 509
984012 803297 525
259325 591623 470
141328 183611 383
868345 870405 388
514253 561675 452
971487 195518 525
852849 292438 525
992762 636279 525
281342 908496 525
921157 907448 476
837310 175873 509
777292 556194 509
46440 717624 509
579370 415430 470
882433 396430 525
463965 238624 449
238357 189465 443
170325 922507 525
449213 879323 525
328450 548052 470
135760 140610 344
804105 692849 504
82469 795815 509
979839 935080 507
318690 650484 509
2188 719745 509
664304 614499 509
221655 434649 449
187180 905351 525
200062 279805 443
285031 371840 441
242254 84408 443
705278 396411 509
885920 248881 525
692850 802972 504
499768 208853 449
632615 618274 509
56752 437380 449
101607 75839 351
218026 772591 509
928001 733129 525
370112 144413 443
938484 369693 525
681392 815228 504
138023 55746 354
208122 440542 449
974110 819475 525
877778 316973 525
609892 909785 525
650380 371796 509
954700 741336 525
17740 253776 443
700927 424485 509
268190 228108 443
508537 689829 509
587330 254704 470
440952 969900 525
122340 248756 443
394802 301874 441
822455 499811 509
966706 622735 525
826324 652149 504
233479 480782 449
212247 425674 449
118846 219913 386
583107 116385 470
928774 867590 476
208199 766459 509
257026 136649 443
29019 115864 354
801955 765373 468
237529 494392 449
536067 864968 525
260382 759791 509
604831 741512 509
422770 275395 449
289319 700286 509
355151 273686 441
981467 883211 507
628756 487237 509
751031 654852 504
864731 94518 525
901545 464294 525
784313 712502 468
427485 229770 449
363636 370463 392
319565 108924 443
804424 277658 509
795380 648753 504
840420 879578 432
409804 929145 525
183296 492895 449
399660 690899 509
536108 750388 509
685858 590190 509
432318 461082 400
299777 398386 441
27039 730376 509
460590 583717 470
60295 528497 470
892725 376566 525
335508 606050 470
833593 954548 525
556664 822879 509
787820 598992 509
952367 804881 525
623477 346198 470
323569 783221 509
746568 963851 525
947227 174700 525
96689 813722 509
889231 85150 525
204544 26660 383
988822 404092 525
475060 734859 509
556688 263193 470
135181 556409 470
9952 217390 386
833139 664879 504
514978 532755 439
104689 113005 354
635567 954045 525
758482 948775 525
589787 326633 470
517735 8095 470
72323 130881 354
425124 984812 525
121598 457840 449
140950 514026 470
500042 103389 449
586724 600771 403
282536 132479 443
907964 604832 525
53974 580506 470
143053 434555 449
651619 299409 509
115266 356890 443
671027 778029 504
872349 606503 525
521875 625351 452
59886 440973 449
788330 939523 525
492413 985293 525
265101 36913 443
310270 229488 443
795185 448587 509
83603 933161 525
578612 959396 525
90604 175330 383
940169 239821 525
191703 555781 470
803653 874282 525
751431 202831 509
97759 945941 525
778727 785549 362
50976 828673 509
644270 884099 525
640806 72221 509
401754 442206 449
780646 677729 504
565701 714110 509
73040 295380 443
396586 577719 470
928585 625311 525
424264 561809 470
862045 28846 525
211143 304182 443
831864 672116 504
4961 796799 509
375013 592915 470
401193 944309 525
485665 547954 470
191233 484186 449
310206 395006 441
668332 315459 509
242324 331420 407
593060 462290 470
396621 337427 441
322608 42885 443
110588 931515 525
820818 113905 509
854362 969859 507
286074 15601 443
841969 111868 525
422988 57724 449
810620 646392 504
83610 531180 470
597090 759760 509
701780 963182 525
623407 973024 525
563409 398927 470
853611 90106 525
784326 280950 509
929035 75754 525
845234 210321 525
406370 655440 509
692343 747036 504
845621 90331 525
731090 126888 509
634672 175433 509
260611 508785 449
624270 975029 525
582641 454315 470
168294 376863 443
312870 684932 509
45663 20618 324
24044 401811 443
669756 334120 509
262318 331031 407
803014 769697 468
420675 494487 444
954256 909845 507
937466 821659 525
489633 465372 413
159488 475606 449
228241 359173 443
39660 604257 470
382728 845786 525
218290 581500 470
296318 330376 384
281200 553777 470
480731 136610 449
670655 94221 509
957036 114136 525
615201 574769 447
18673 86065 351
595664 509304 470
490962 954137 525
928206 810237 525
240713 445626 449
377185 231203 441
423569 311892 449
28266 331333 443
125959 5286 354
804086 924199 525
617262 146929 470
454434 486053 444
218209 484597 449
312978 615364 470
16429 458542 449
951850 226097 525
883864 923057 476
176481 588364 470
436173 46223 449
916046 441914 525
480890 324653 449
788182 845122 525
249389 627620 509
397398 811618 509
597477 708679 509
918593 495495 525
32467 917770 525
559541 33782 470
303820 518448 470
648622 622227 509
953689 207054 525
333908 369830 441
408119 243903 441
112157 24563 354
447566 214759 449
725917 115932 509
159979 36785 383
321321 411033 449
590611 444313 470
465881 74993 449
74542 51669 340
679380 579376 509
55672 650021 509
925888 233611 525
397632 504452 449
35266 313765 443
842642 146411 525
693290 693658 305
576675 243518 470
980115 828768 525
104089 827300 509
481871 395419 449
499247 498637 276
30122 865935 525
905390 382614 525
772117 121803 509
551228 982874 525
8485 781431 509
165761 658513 509
823362 846385 525
633123 165742 509
637298 763294 504
282336 745984 509
527340 610479 452
766647 226317 509
584245 624066 447
907425 660992 525
301392 964590 525
869084 274140 525
114549 392411 443
489378 659110 509
508769 229944 449
155243 720352 509
571530 56 470
419218 840265 525
489817 64816 449
909830 326171 525
62642 762260 509
651980 763132 504
163610 840445 525
651839 497661 509
681947 778702 504
949877 505346 525
932721 545404 525
151897 389187 443
733687 633766 504
667804 189470 509
396809 281934 441
909577 777687 525
762595 562157 509
445643 34629 449
480958 142576 449
428468 600070 470
943821 781459 525
133448 425332 449
630429 362791 509
157109 475906 449
871 119091 354
520352 950470 525
526495 683215 509
301009 883251 525
170979 544482 470
687390 999223 525
744138 416565 509
844430 479449 525
145092 995918 525
11370 561179 470
621012 801309 509
890374 911930 476
475411 511975 470
964440 355868 525
911434 16010 525
545242 752311 509
375816 680372 509
236561 816079 509
473727 940919 525
228250 492725 449
650748 927813 525
507250 540321 470
140547 344752 443
821629 695896 504
297602 101002 443
358457 730532 509
684714 644617 442
626415 302902 509
377641 429233 449
398964 238121 441
698211 303544 509
888315 194209 525
184193 704788 509
378294 879268 525
258508 563132 470
7925 354307 443
981828 71656 525
932287 225268 525
941635 939963 383
168970 208468 373
973066 143782 525
748219 686526 504
728749 95931 509
214474 748467 509
674397 303512 509
888728 305052 525
300637 893330 525
551237 244947 470
342674 207697 443
294819 969939 525
967688 450761 525
786281 561360 509
564005 69583 470
403125 414738 449
293817 23310 443
17439 477649 449
762621 621596 509
579609 787412 509
898644 736071 525
152631 473525 449
685617 259703 509
605977 803142 509
217357 39601 386
446377 539358 470
241759 936201 525
421142 113640 449
500529 530892 470
637825 317440 509
427663 829917 509
151655 980214 525
147633 23779 375
341461 109087 443
781383 962309 525
218686 22966 386
920800 528800 525
280125 366475 441
636927 820232 504
985648 871620 507
547166 231059 470
777442 971972 525
361160 907848 525
603283 118643 470
535674 375304 470
101310 911741 525
63882 459947 449
459833 901388 525
441988 212815 449
155187 782649 509
912613 769704 525
569763 361650 470
464262 826377 509
853624 827278 525
309737 790265 509
471123 32194 449
419344 171504 449
647607 774795 504
772293 415191 509
69087 454738 449
378176 429251 449
856600 774808 525
120432 467667 449
731547 542476 509
175828 858950 525
183384 982424 525
521163 606584 452
144351 646598 509
15474 295059 443
194434 310649 443
751961 698672 504
525441 327653 470
759319 923927 525
434926 165642 449
944452 313486 525
448128 904778 525
171269 929302 525
570864 283629 470
136731 669826 509
85200 74392 351
964800 381443 525
559887 666546 509
641799 47106 509
6051 995935 525
278047 938015 525
247973 699777 509
888068 451131 525
838539 535539 525
31750 836113 509
103648 983922 525
622583 673333 509
835420 240191 509
508627 53960 449
55219 964398 525
898316 361509 525
200777 961974 525
306832 155056 443
913771 355767 525
344725 389891 441
655393 657995 429
875497 316317 525
758354 997445 525
441954 187951 449
85696 992094 525
347139 788969 509
432691 241233 449
61082 807213 509
290409 370793 441
408220 777977 509
98990 38889 351
959696 235032 525
459583 278784 449
593323 609585 403
331516 124783 443
972750 834067 525
164895 496035 449
95011 428695 449
87356 600884 470
730439 901393 525
774728 417176 509
479543 115223 449
86525 900707 525
480372 359785 449
335095 912605 525
255404 752704 509
539776 192978 470
346352 542279 470
729029 539022 509
633404 529773 509
847765 533954 525
317752 358700 441
520960 710705 509
721463 574951 509
625162 612776 447
421222 301448 449
872526 698385 525
527812 830713 509
871641 147440 525
951274 451078 525
976867 730201 525
727849 29854 509
