1 10 20
100 200 125
201 210 89
900 1000 174
35056 4560 311
25604 447410 449
13599 6720 276
32473 737227 509
26875 757759 509
98883 887788 525
2679 721071 509
80903 469591 449
89400 82736 333
94670 660564 509
87409 168810 383
76525 586129 470
73388 847049 525
51629 714075 509
15794 357081 443
85559 874006 525
21481 8223 279
10286 810316 509
11509 132271 354
5682 455397 449
39295 519017 470
6438 429605 449
51751 92929 351
23762 775223 509
13939 722135 509
92405 852516 525
30716 987493 525
12680 118046 354
51725 268346 443
3 230247 386
86516 103595 341
22609 263952 443
13531 287910 443
39334 400020 443
27119 895041 525
8604 681733 509
51088 335852 443
51650 770375 509
67086 777178 509
37778 602563 470
33342 143681 375
34043 795364 509
80907 318002 443
54968 835267 509
93306 9 351
54107 594300 470
2875 153643 375
5847 678123 509
63102 203364 383
21018 756289 509
73380 748894 509
34442 398124 443
66883 914498 525
92424 820323 509
77032 381161 443
17010 201397 383
60773 253037 443
44187 851543 525
18259 150371 375
37399 226569 386
50255 576874 470
46181 139638 354
15922 854669 525
85191 721741 509
72206 163462 383
70543 382621 443
81990 931653 525
47809 448174 449
867 318217 443
28593 744084 509
92622 921977 525
92513 882197 525
7456 94097 351
11117 126486 354
95646 136201 354
99418 727713 509
36410 279944 443
94352 966005 525
89771 482239 449
7396 719619 509
95560 221954 386
78992 197877 383
432 359693 443
3368 13315 276
85873 950040 525
60145 247382 443
88006 659480 509
16548 216503 386
38576 383 324
61703 780964 509
32896 246747 443
22886 763309 509
83588 125606 354
4182 880950 525
8756 729050 509
69414 861467 525
11230 277300 443
88124 264870 443
39550 154713 375
80763 579081 470
35325 62856 340
36892 301478 443
93198 131002 354
38817 87369 351
53480 507302 449
33877 695911 509
81248 448993 449
90922 768865 509
40136 449113 449
96804 887516 525
99465 332877 443
90273 51692 351
28536 688859 509
96776 171768 383
60640 61553 335
93902 922885 525
70428 343478 443
94926 909413 525
13614 765316 509
10395 871679 525
93129 87101 333
10425 648409 509
77279 740895 509
26559 478007 449
53298 110202 354
73690 676306 509
66775 247469 443
18172 688952 509
115 870743 525
31173 842840 525
25884 231921 443
98135 914939 525
29074 659818 509
23547 192678 383
43279 792225 509
27250 583 308
64127 108887 354
32 892403 525
98394 449780 449
69128 779783 509
91872 786879 509
24941 448425 449
27999 383174 443
50396 489821 449
71262 782945 509
21374 477613 449
20853 11842 279
72804 59905 335
39553 147955 375
78250 692449 509
29365 951390 525
55261 699581 509
26191 749056 509
30894 850169 525
309 975139 525
15427 902894 525
8591 826326 509
57181 512698 470
8809 131455 354
89065 985229 525
77383 524995 470
83518 964338 525
28857 486275 449
21448 242074 443
78034 6073 351
18823 858825 525
37795 711162 509
46995 983317 525
15245 210663 383
96722 752585 509
50349 699261 509
41443 73697 340
60010 398293 443
21700 934542 525
99751 770004 509
90914 386260 443
49881 844831 525
42779 376912 443
49696 647941 509
19429 211444 383
13557 8335 276
67926 544444 470
36480 456026 449
82253 628528 509
46389 522409 470
38513 313093 443
6519 541409 470
29929 189048 383
2830 407958 443
47240 452024 449
4964 472274 449
42898 707379 509
24304 642077 509
78922 965865 525
60128 592172 470
64933 162092 383
24660 526682 470
84677 340196 443
10047 72476 340
13383 464408 449
2537 568008 470
42632 555780 470
64101 904597 525
43762 35670 306
63156 255064 443
30439 35 308
48786 769149 509
39266 819834 509
43465 810067 509
53957 120105 354
89238 16654 351
22956 165489 383
81471 795491 509
33422 968472 525
91796 212611 383
17474 984490 525
1538 100140 351
76232 122519 354
25 844900 525
87633 236397 443
58031 217245 386
19035 352038 443
2661 540672 470
22007 753801 509
47407 235624 443
73059 503 340
65815 293864 443
2789 478790 449
72918 16745 340
66106 599531 470
52849 868508 525
59944 509714 449
27285 32315 285
87112 101674 341
43312 150623 375
544 281034 443
35786 363358 443
58685 486889 449
37285 1430 324
65241 910567 525
