1 10 20
100 200 125
201 210 89
900 1000 174
345301 161362 443
899621 194432 525
684360 954964 525
64691 127980 354
72211 21640 340
154542 303623 443
241374 556425 470
591244 260182 470
37271 955439 525
738330 773284 468
465053 114233 449
337503 455777 449
767626 461795 509
286526 549361 470
21881 780859 509
26112 781670 509
791403 760744 468
934167 442942 525
512811 977854 525
803897 478063 509
769459 614932 509
977324 297174 525
866553 61033 525
25294 986775 525
207583 628009 509
250829 297137 407
949643 953082 414
552225 672423 509
523879 601114 452
616638 566281 447
85658 291426 443
621897 101962 470
659561 185553 509
484910 758894 509
933491 349204 525
943810 515698 525
89125 569850 470
719557 42799 509
227371 312677 443
813051 35748 509
574061 60791 470
311416 607258 470
303008 85223 443
100871 21802 351
171270 580350 470
909290 104360 525
961026 560524 525
242682 377477 441
511343 607119 470
467994 875869 525
868409 340243 525
1008 876610 525
225629 479285 449
796405 320484 509
449524 430796 400
395299 444003 449
657590 700403 442
837842 444220 525
807395 913805 525
884339 623934 525
863782 339676 525
131304 98568 354
811815 608481 509
831280 649303 504
930110 708399 525
594681 456550 470
151380 163522 383
318638 43013 443
652258 839545 525
226455 963688 525
594789 123408 470
284842 378717 441
967413 264165 525
463397 719521 509
287651 601316 470
651168 858090 525
778253 822644 468
931373 276931 525
546069 165772 470
546272 566828 452
347085 715498 509
191639 242804 443
821882 148133 509
840945 682245 525
279942 876519 525
996723 962559 458
407497 285704 441
335675 530826 470
890255 170993 525
527511 662972 509
809146 564783 509
239288 793031 509
802619 451429 509
491330 179728 449
524724 25290 470
168130 318310 443
587648 483746 470
61613 925253 525
587106 938266 525
564642 238249 470
479801 473094 382
556710 388156 470
483045 268681 449
293007 87412 443
65008 402188 443
644994 819598 504
695957 637388 442
889912 863991 445
976274 418489 525
512888 213038 470
987150 649003 525
281860 103896 443
958449 517583 525
274517 551418 470
742173 947433 525
483194 956157 525
522854 864205 525
232239 142503 443
119246 542484 470
472931 417052 444
185310 917852 525
192628 390233 443
769928 631003 504
13185 707425 509
600710 923183 525
914690 365535 525
946912 103159 525
744922 97487 509
